javac -classpath .:../lu-decomposition TankExample2.java
java -classpath .:../lu-decomposition TankExample2
Capacitor (tank): time=0.000000   v_1=9.000000 v_2=0.600000  
Capacitor (tank): time=0.000010   v_1=9.153153 v_2=0.768685  
Capacitor (tank): time=0.000020   v_1=9.168350 v_2=0.935694  
Capacitor (tank): time=0.000030   v_1=9.183396 v_2=1.099681  
Capacitor (tank): time=0.000040   v_1=9.198169 v_2=1.260702  
Capacitor (tank): time=0.000050   v_1=9.212676 v_2=1.418809  
Capacitor (tank): time=0.000060   v_1=9.226920 v_2=1.574055  
Capacitor (tank): time=0.000070   v_1=9.240906 v_2=1.726493  
Capacitor (tank): time=0.000080   v_1=9.254639 v_2=1.876174  
Capacitor (tank): time=0.000090   v_1=9.268124 v_2=2.023146  
Capacitor (tank): time=0.000100   v_1=9.281364 v_2=2.167459  
Capacitor (tank): time=0.000110   v_1=9.294366 v_2=2.309162  
Capacitor (tank): time=0.000120   v_1=9.307132 v_2=2.448301  
Capacitor (tank): time=0.000130   v_1=9.319667 v_2=2.584922  
Capacitor (tank): time=0.000140   v_1=9.331975 v_2=2.719072  
Capacitor (tank): time=0.000150   v_1=9.344061 v_2=2.850795  
Capacitor (tank): time=0.000160   v_1=9.355927 v_2=2.980135  
Capacitor (tank): time=0.000170   v_1=9.367580 v_2=3.107135  
Capacitor (tank): time=0.000180   v_1=9.379021 v_2=3.231837  
Capacitor (tank): time=0.000190   v_1=9.390256 v_2=3.354284  
Capacitor (tank): time=0.000200   v_1=9.401287 v_2=3.474515  
Capacitor (tank): time=0.000210   v_1=9.412118 v_2=3.592571  
Capacitor (tank): time=0.000220   v_1=9.422754 v_2=3.708491  
Capacitor (tank): time=0.000230   v_1=9.433197 v_2=3.822313  
Capacitor (tank): time=0.000240   v_1=9.443452 v_2=3.934077  
Capacitor (tank): time=0.000250   v_1=9.453520 v_2=4.043819  
Capacitor (tank): time=0.000260   v_1=9.463407 v_2=4.151575  
Capacitor (tank): time=0.000270   v_1=9.473115 v_2=4.257382  
Capacitor (tank): time=0.000280   v_1=9.482647 v_2=4.361275  
Capacitor (tank): time=0.000290   v_1=9.492007 v_2=4.463288  
Capacitor (tank): time=0.000300   v_1=9.501197 v_2=4.563455  
Capacitor (tank): time=0.000310   v_1=9.510221 v_2=4.661810  
Capacitor (tank): time=0.000320   v_1=9.519082 v_2=4.758386  
Capacitor (tank): time=0.000330   v_1=9.527783 v_2=4.853215  
Capacitor (tank): time=0.000340   v_1=9.536326 v_2=4.946328  
Capacitor (tank): time=0.000350   v_1=9.544714 v_2=5.037757  
Capacitor (tank): time=0.000360   v_1=9.552951 v_2=5.127531  
Capacitor (tank): time=0.000370   v_1=9.561039 v_2=5.215682  
Capacitor (tank): time=0.000380   v_1=9.568980 v_2=5.302237  
Capacitor (tank): time=0.000390   v_1=9.576778 v_2=5.387227  
Capacitor (tank): time=0.000400   v_1=9.584435 v_2=5.470679  
Capacitor (tank): time=0.000410   v_1=9.591953 v_2=5.552621  
Capacitor (tank): time=0.000420   v_1=9.599335 v_2=5.633081  
Capacitor (tank): time=0.000430   v_1=9.606584 v_2=5.712085  
Capacitor (tank): time=0.000440   v_1=9.613701 v_2=5.789660  
Capacitor (tank): time=0.000450   v_1=9.620690 v_2=5.865831  
Capacitor (tank): time=0.000460   v_1=9.627552 v_2=5.940625  
Capacitor (tank): time=0.000470   v_1=9.634290 v_2=6.014065  
Capacitor (tank): time=0.000480   v_1=9.640907 v_2=6.086176  
Capacitor (tank): time=0.000490   v_1=9.647403 v_2=6.156983  
Capacitor (tank): time=0.000500   v_1=9.653782 v_2=6.226509  
Capacitor (tank): time=0.000510   v_1=9.660046 v_2=6.294777  
Capacitor (tank): time=0.000520   v_1=9.666196 v_2=6.361810  
Capacitor (tank): time=0.000530   v_1=9.672235 v_2=6.427631  
Capacitor (tank): time=0.000540   v_1=9.678165 v_2=6.492260  
Capacitor (tank): time=0.000550   v_1=9.683987 v_2=6.555721  
Capacitor (tank): time=0.000560   v_1=9.689705 v_2=6.618033  
Capacitor (tank): time=0.000570   v_1=9.695318 v_2=6.679218  
Capacitor (tank): time=0.000580   v_1=9.700830 v_2=6.739296  
Capacitor (tank): time=0.000590   v_1=9.706243 v_2=6.798287  
Capacitor (tank): time=0.000600   v_1=9.711557 v_2=6.856211  
Capacitor (tank): time=0.000610   v_1=9.716776 v_2=6.913087  
Capacitor (tank): time=0.000620   v_1=9.721900 v_2=6.968933  
Capacitor (tank): time=0.000630   v_1=9.726931 v_2=7.023770  
Capacitor (tank): time=0.000640   v_1=9.731871 v_2=7.077615  
Capacitor (tank): time=0.000650   v_1=9.736722 v_2=7.130485  
Capacitor (tank): time=0.000660   v_1=9.741485 v_2=7.182399  
Capacitor (tank): time=0.000670   v_1=9.746162 v_2=7.233373  
Capacitor (tank): time=0.000680   v_1=9.750754 v_2=7.283426  
Capacitor (tank): time=0.000690   v_1=9.755264 v_2=7.332573  
Capacitor (tank): time=0.000700   v_1=9.759691 v_2=7.380831  
Capacitor (tank): time=0.000710   v_1=9.764039 v_2=7.428215  
Capacitor (tank): time=0.000720   v_1=9.768308 v_2=7.474743  
Capacitor (tank): time=0.000730   v_1=9.772499 v_2=7.520428  
Capacitor (tank): time=0.000740   v_1=9.776615 v_2=7.565288  
Capacitor (tank): time=0.000750   v_1=9.780657 v_2=7.609335  
Capacitor (tank): time=0.000760   v_1=9.784625 v_2=7.652586  
Capacitor (tank): time=0.000770   v_1=9.788521 v_2=7.695054  
Capacitor (tank): time=0.000780   v_1=9.792347 v_2=7.736754  
Capacitor (tank): time=0.000790   v_1=9.796104 v_2=7.777700  
Capacitor (tank): time=0.000800   v_1=9.799793 v_2=7.817905  
Capacitor (tank): time=0.000810   v_1=9.803415 v_2=7.857382  
Capacitor (tank): time=0.000820   v_1=9.806971 v_2=7.896145  
Capacitor (tank): time=0.000830   v_1=9.810464 v_2=7.934207  
Capacitor (tank): time=0.000840   v_1=9.813893 v_2=7.971580  
Capacitor (tank): time=0.000850   v_1=9.817259 v_2=8.008278  
Capacitor (tank): time=0.000860   v_1=9.820566 v_2=8.044311  
Capacitor (tank): time=0.000870   v_1=9.823812 v_2=8.079692  
Capacitor (tank): time=0.000880   v_1=9.826999 v_2=8.114433  
Capacitor (tank): time=0.000890   v_1=9.830129 v_2=8.148546  
Capacitor (tank): time=0.000900   v_1=9.833202 v_2=8.182042  
Capacitor (tank): time=0.000910   v_1=9.836220 v_2=8.214931  
Capacitor (tank): time=0.000920   v_1=9.839183 v_2=8.247226  
Capacitor (tank): time=0.000930   v_1=9.842092 v_2=8.278936  
Capacitor (tank): time=0.000940   v_1=9.844949 v_2=8.310073  
Capacitor (tank): time=0.000950   v_1=9.847754 v_2=8.340646  
Capacitor (tank): time=0.000960   v_1=9.850509 v_2=8.370666  
Capacitor (tank): time=0.000970   v_1=9.853213 v_2=8.400144  
Capacitor (tank): time=0.000980   v_1=9.855869 v_2=8.429087  
Capacitor (tank): time=0.000990   v_1=9.858476 v_2=8.457508  
Capacitor (tank): time=0.001000   v_1=9.861037 v_2=8.485414  
Capacitor (tank): time=0.001010   v_1=9.863551 v_2=8.512815  
Capacitor (tank): time=0.001020   v_1=9.866019 v_2=8.539720  
Capacitor (tank): time=0.001030   v_1=9.868443 v_2=8.566139  
Capacitor (tank): time=0.001040   v_1=9.870823 v_2=8.592080  
Capacitor (tank): time=0.001050   v_1=9.873160 v_2=8.617551  
Capacitor (tank): time=0.001060   v_1=9.875455 v_2=8.642562  
Capacitor (tank): time=0.001070   v_1=9.877708 v_2=8.667120  
Capacitor (tank): time=0.001080   v_1=9.879921 v_2=8.691233  
Capacitor (tank): time=0.001090   v_1=9.882093 v_2=8.714911  
Capacitor (tank): time=0.001100   v_1=9.884226 v_2=8.738160  
Capacitor (tank): time=0.001110   v_1=9.886321 v_2=8.760989  
Capacitor (tank): time=0.001120   v_1=9.888377 v_2=8.783404  
Capacitor (tank): time=0.001130   v_1=9.890397 v_2=8.805414  
Capacitor (tank): time=0.001140   v_1=9.892380 v_2=8.827026  
Capacitor (tank): time=0.001150   v_1=9.894327 v_2=8.848247  
Capacitor (tank): time=0.001160   v_1=9.896238 v_2=8.869084  
Capacitor (tank): time=0.001170   v_1=9.898116 v_2=8.889544  
Capacitor (tank): time=0.001180   v_1=9.899959 v_2=8.909634  
Capacitor (tank): time=0.001190   v_1=9.901769 v_2=8.929360  
Capacitor (tank): time=0.001200   v_1=9.903546 v_2=8.948730  
Capacitor (tank): time=0.001210   v_1=9.905291 v_2=8.967749  
Capacitor (tank): time=0.001220   v_1=9.907004 v_2=8.986424  
Capacitor (tank): time=0.001230   v_1=9.908687 v_2=9.004761  
Capacitor (tank): time=0.001240   v_1=9.910339 v_2=9.022766  
Capacitor (tank): time=0.001250   v_1=9.911961 v_2=9.040446  
Capacitor (tank): time=0.001260   v_1=9.913554 v_2=9.057806  
Capacitor (tank): time=0.001270   v_1=9.915118 v_2=9.074851  
Capacitor (tank): time=0.001280   v_1=9.916653 v_2=9.091589  
Capacitor (tank): time=0.001290   v_1=9.918161 v_2=9.108023  
Capacitor (tank): time=0.001300   v_1=9.919642 v_2=9.124161  
Capacitor (tank): time=0.001310   v_1=9.921096 v_2=9.140006  
Capacitor (tank): time=0.001320   v_1=9.922523 v_2=9.155564  
Capacitor (tank): time=0.001330   v_1=9.923925 v_2=9.170841  
Capacitor (tank): time=0.001340   v_1=9.925301 v_2=9.185842  
Capacitor (tank): time=0.001350   v_1=9.926652 v_2=9.200572  
Capacitor (tank): time=0.001360   v_1=9.927979 v_2=9.215034  
Capacitor (tank): time=0.001370   v_1=9.929282 v_2=9.229236  
Capacitor (tank): time=0.001380   v_1=9.930562 v_2=9.243180  
Capacitor (tank): time=0.001390   v_1=9.931818 v_2=9.256872  
Capacitor (tank): time=0.001400   v_1=9.933052 v_2=9.270316  
Capacitor (tank): time=0.001410   v_1=9.934263 v_2=9.283517  
Capacitor (tank): time=0.001420   v_1=9.935452 v_2=9.296480  
Capacitor (tank): time=0.001430   v_1=9.936620 v_2=9.309207  
Capacitor (tank): time=0.001440   v_1=9.937766 v_2=9.321705  
Capacitor (tank): time=0.001450   v_1=9.938892 v_2=9.333976  
Capacitor (tank): time=0.001460   v_1=9.939998 v_2=9.346026  
Capacitor (tank): time=0.001470   v_1=9.941083 v_2=9.357857  
Capacitor (tank): time=0.001480   v_1=9.942149 v_2=9.369474  
Capacitor (tank): time=0.001490   v_1=9.943196 v_2=9.380881  
Capacitor (tank): time=0.001500   v_1=9.944224 v_2=9.392082  
Capacitor (tank): time=0.001510   v_1=9.945233 v_2=9.403080  
Capacitor (tank): time=0.001520   v_1=9.946223 v_2=9.413880  
Capacitor (tank): time=0.001530   v_1=9.947196 v_2=9.424483  
Capacitor (tank): time=0.001540   v_1=9.948152 v_2=9.434895  
Capacitor (tank): time=0.001550   v_1=9.949090 v_2=9.445119  
Capacitor (tank): time=0.001560   v_1=9.950011 v_2=9.455158  
Capacitor (tank): time=0.001570   v_1=9.950915 v_2=9.465015  
Capacitor (tank): time=0.001580   v_1=9.951803 v_2=9.474693  
Capacitor (tank): time=0.001590   v_1=9.952675 v_2=9.484197  
Capacitor (tank): time=0.001600   v_1=9.953531 v_2=9.493529  
Capacitor (tank): time=0.001610   v_1=9.954372 v_2=9.502691  
Capacitor (tank): time=0.001620   v_1=9.955197 v_2=9.511688  
Capacitor (tank): time=0.001630   v_1=9.956008 v_2=9.520523  
Capacitor (tank): time=0.001640   v_1=9.956804 v_2=9.529197  
Capacitor (tank): time=0.001650   v_1=9.957585 v_2=9.537715  
Capacitor (tank): time=0.001660   v_1=9.958353 v_2=9.546078  
Capacitor (tank): time=0.001670   v_1=9.959106 v_2=9.554290  
Capacitor (tank): time=0.001680   v_1=9.959846 v_2=9.562354  
Capacitor (tank): time=0.001690   v_1=9.960572 v_2=9.570272  
Capacitor (tank): time=0.001700   v_1=9.961286 v_2=9.578046  
Capacitor (tank): time=0.001710   v_1=9.961986 v_2=9.585680  
Capacitor (tank): time=0.001720   v_1=9.962674 v_2=9.593175  
Capacitor (tank): time=0.001730   v_1=9.963349 v_2=9.600535  
Capacitor (tank): time=0.001740   v_1=9.964012 v_2=9.607762  
Capacitor (tank): time=0.001750   v_1=9.964663 v_2=9.614859  
Capacitor (tank): time=0.001760   v_1=9.965303 v_2=9.621826  
Capacitor (tank): time=0.001770   v_1=9.965930 v_2=9.628668  
Capacitor (tank): time=0.001780   v_1=9.966547 v_2=9.635386  
Capacitor (tank): time=0.001790   v_1=9.967152 v_2=9.641982  
Capacitor (tank): time=0.001800   v_1=9.967746 v_2=9.648460  
Capacitor (tank): time=0.001810   v_1=9.968330 v_2=9.654819  
Capacitor (tank): time=0.001820   v_1=9.968903 v_2=9.661064  
Capacitor (tank): time=0.001830   v_1=9.969465 v_2=9.667196  
Capacitor (tank): time=0.001840   v_1=9.970018 v_2=9.673217  
Capacitor (tank): time=0.001850   v_1=9.970560 v_2=9.679129  
Capacitor (tank): time=0.001860   v_1=9.971093 v_2=9.684934  
Capacitor (tank): time=0.001870   v_1=9.971616 v_2=9.690634  
Capacitor (tank): time=0.001880   v_1=9.972129 v_2=9.696231  
Capacitor (tank): time=0.001890   v_1=9.972633 v_2=9.701727  
Capacitor (tank): time=0.001900   v_1=9.973129 v_2=9.707123  
Capacitor (tank): time=0.001910   v_1=9.973615 v_2=9.712421  
Capacitor (tank): time=0.001920   v_1=9.974092 v_2=9.717624  
Capacitor (tank): time=0.001930   v_1=9.974561 v_2=9.722733  
Capacitor (tank): time=0.001940   v_1=9.975021 v_2=9.727749  
Capacitor (tank): time=0.001950   v_1=9.975473 v_2=9.732674  
Capacitor (tank): time=0.001960   v_1=9.975917 v_2=9.737511  
Capacitor (tank): time=0.001970   v_1=9.976352 v_2=9.742260  
Capacitor (tank): time=0.001980   v_1=9.976780 v_2=9.746922  
Capacitor (tank): time=0.001990   v_1=9.977200 v_2=9.751501  
Capacitor (tank): time=0.002000   v_1=9.977613 v_2=9.755997  
Capacitor (tank): time=0.002010   v_1=9.978018 v_2=9.760411  
Capacitor (tank): time=0.002020   v_1=9.978415 v_2=9.764746  
Capacitor (tank): time=0.002030   v_1=9.978806 v_2=9.769002  
Capacitor (tank): time=0.002040   v_1=9.979189 v_2=9.773181  
Capacitor (tank): time=0.002050   v_1=9.979566 v_2=9.777284  
Capacitor (tank): time=0.002060   v_1=9.979936 v_2=9.781314  
Capacitor (tank): time=0.002070   v_1=9.980299 v_2=9.785270  
Capacitor (tank): time=0.002080   v_1=9.980655 v_2=9.789155  
Capacitor (tank): time=0.002090   v_1=9.981005 v_2=9.792969  
Capacitor (tank): time=0.002100   v_1=9.981349 v_2=9.796715  
Capacitor (tank): time=0.002110   v_1=9.981686 v_2=9.800393  
Capacitor (tank): time=0.002120   v_1=9.982017 v_2=9.804004  
Capacitor (tank): time=0.002130   v_1=9.982343 v_2=9.807550  
Capacitor (tank): time=0.002140   v_1=9.982662 v_2=9.811031  
Capacitor (tank): time=0.002150   v_1=9.982976 v_2=9.814450  
Capacitor (tank): time=0.002160   v_1=9.983284 v_2=9.817807  
Capacitor (tank): time=0.002170   v_1=9.983586 v_2=9.821103  
Capacitor (tank): time=0.002180   v_1=9.983883 v_2=9.824340  
Capacitor (tank): time=0.002190   v_1=9.984175 v_2=9.827518  
Capacitor (tank): time=0.002200   v_1=9.984461 v_2=9.830638  
Capacitor (tank): time=0.002210   v_1=9.984742 v_2=9.833702  
Capacitor (tank): time=0.002220   v_1=9.985018 v_2=9.836711  
Capacitor (tank): time=0.002230   v_1=9.985289 v_2=9.839665  
Capacitor (tank): time=0.002240   v_1=9.985555 v_2=9.842565  
Capacitor (tank): time=0.002250   v_1=9.985817 v_2=9.845414  
Capacitor (tank): time=0.002260   v_1=9.986073 v_2=9.848210  
Capacitor (tank): time=0.002270   v_1=9.986325 v_2=9.850957  
Capacitor (tank): time=0.002280   v_1=9.986573 v_2=9.853653  
Capacitor (tank): time=0.002290   v_1=9.986816 v_2=9.856301  
Capacitor (tank): time=0.002300   v_1=9.987054 v_2=9.858900  
Capacitor (tank): time=0.002310   v_1=9.987288 v_2=9.861453  
Capacitor (tank): time=0.002320   v_1=9.987518 v_2=9.863960  
Capacitor (tank): time=0.002330   v_1=9.987744 v_2=9.866421  
Capacitor (tank): time=0.002340   v_1=9.987966 v_2=9.868837  
Capacitor (tank): time=0.002350   v_1=9.988184 v_2=9.871210  
Capacitor (tank): time=0.002360   v_1=9.988397 v_2=9.873540  
Capacitor (tank): time=0.002370   v_1=9.988607 v_2=9.875828  
Capacitor (tank): time=0.002380   v_1=9.988813 v_2=9.878075  
Capacitor (tank): time=0.002390   v_1=9.989016 v_2=9.880280  
Capacitor (tank): time=0.002400   v_1=9.989214 v_2=9.882446  
Capacitor (tank): time=0.002410   v_1=9.989410 v_2=9.884573  
Capacitor (tank): time=0.002420   v_1=9.989601 v_2=9.886661  
Capacitor (tank): time=0.002430   v_1=9.989789 v_2=9.888712  
Capacitor (tank): time=0.002440   v_1=9.989974 v_2=9.890725  
Capacitor (tank): time=0.002450   v_1=9.990155 v_2=9.892702  
Capacitor (tank): time=0.002460   v_1=9.990334 v_2=9.894643  
Capacitor (tank): time=0.002470   v_1=9.990508 v_2=9.896549  
Capacitor (tank): time=0.002480   v_1=9.990680 v_2=9.898421  
Capacitor (tank): time=0.002490   v_1=9.990849 v_2=9.900259  
Capacitor (tank): time=0.002500   v_1=9.991014 v_2=9.902063  
Capacitor (tank): time=0.002510   v_1=9.991177 v_2=9.903835  
Capacitor (tank): time=0.002520   v_1=9.991336 v_2=9.905575  
Capacitor (tank): time=0.002530   v_1=9.991493 v_2=9.907283  
Capacitor (tank): time=0.002540   v_1=9.991647 v_2=9.908960  
Capacitor (tank): time=0.002550   v_1=9.991798 v_2=9.910607  
Capacitor (tank): time=0.002560   v_1=9.991947 v_2=9.912225  
Capacitor (tank): time=0.002570   v_1=9.992092 v_2=9.913813  
Capacitor (tank): time=0.002580   v_1=9.992235 v_2=9.915372  
Capacitor (tank): time=0.002590   v_1=9.992376 v_2=9.916903  
Capacitor (tank): time=0.002600   v_1=9.992514 v_2=9.918406  
Capacitor (tank): time=0.002610   v_1=9.992649 v_2=9.919882  
Capacitor (tank): time=0.002620   v_1=9.992782 v_2=9.921332  
Capacitor (tank): time=0.002630   v_1=9.992913 v_2=9.922755  
Capacitor (tank): time=0.002640   v_1=9.993041 v_2=9.924153  
Capacitor (tank): time=0.002650   v_1=9.993167 v_2=9.925525  
Capacitor (tank): time=0.002660   v_1=9.993291 v_2=9.926872  
Capacitor (tank): time=0.002670   v_1=9.993412 v_2=9.928195  
Capacitor (tank): time=0.002680   v_1=9.993531 v_2=9.929494  
Capacitor (tank): time=0.002690   v_1=9.993648 v_2=9.930770  
Capacitor (tank): time=0.002700   v_1=9.993763 v_2=9.932022  
Capacitor (tank): time=0.002710   v_1=9.993876 v_2=9.933252  
Capacitor (tank): time=0.002720   v_1=9.993987 v_2=9.934460  
Capacitor (tank): time=0.002730   v_1=9.994095 v_2=9.935645  
Capacitor (tank): time=0.002740   v_1=9.994202 v_2=9.936810  
Capacitor (tank): time=0.002750   v_1=9.994307 v_2=9.937953  
Capacitor (tank): time=0.002760   v_1=9.994410 v_2=9.939075  
Capacitor (tank): time=0.002770   v_1=9.994511 v_2=9.940178  
Capacitor (tank): time=0.002780   v_1=9.994611 v_2=9.941260  
Capacitor (tank): time=0.002790   v_1=9.994708 v_2=9.942323  
Capacitor (tank): time=0.002800   v_1=9.994804 v_2=9.943366  
Capacitor (tank): time=0.002810   v_1=9.994898 v_2=9.944391  
Capacitor (tank): time=0.002820   v_1=9.994990 v_2=9.945397  
Capacitor (tank): time=0.002830   v_1=9.995081 v_2=9.946385  
Capacitor (tank): time=0.002840   v_1=9.995170 v_2=9.947355  
Capacitor (tank): time=0.002850   v_1=9.995257 v_2=9.948307  
Capacitor (tank): time=0.002860   v_1=9.995343 v_2=9.949242  
Capacitor (tank): time=0.002870   v_1=9.995427 v_2=9.950160  
Capacitor (tank): time=0.002880   v_1=9.995510 v_2=9.951062  
Capacitor (tank): time=0.002890   v_1=9.995591 v_2=9.951947  
Capacitor (tank): time=0.002900   v_1=9.995671 v_2=9.952817  
Capacitor (tank): time=0.002910   v_1=9.995749 v_2=9.953670  
Capacitor (tank): time=0.002920   v_1=9.995826 v_2=9.954509  
Capacitor (tank): time=0.002930   v_1=9.995902 v_2=9.955332  
Capacitor (tank): time=0.002940   v_1=9.995976 v_2=9.956140  
Capacitor (tank): time=0.002950   v_1=9.996049 v_2=9.956933  
Capacitor (tank): time=0.002960   v_1=9.996120 v_2=9.957712  
Capacitor (tank): time=0.002970   v_1=9.996190 v_2=9.958477  
Capacitor (tank): time=0.002980   v_1=9.996259 v_2=9.959229  
Capacitor (tank): time=0.002990   v_1=9.996327 v_2=9.959966  
Capacitor (tank): time=0.003000   v_1=9.996393 v_2=9.960691  
Capacitor (tank): time=0.003010   v_1=9.996459 v_2=9.961402  
Capacitor (tank): time=0.003020   v_1=9.996523 v_2=9.962100  
Capacitor (tank): time=0.003030   v_1=9.996586 v_2=9.962786  
Capacitor (tank): time=0.003040   v_1=9.996647 v_2=9.963459  
Capacitor (tank): time=0.003050   v_1=9.996708 v_2=9.964120  
Capacitor (tank): time=0.003060   v_1=9.996768 v_2=9.964769  
Capacitor (tank): time=0.003070   v_1=9.996826 v_2=9.965407  
Capacitor (tank): time=0.003080   v_1=9.996883 v_2=9.966032  
Capacitor (tank): time=0.003090   v_1=9.996940 v_2=9.966647  
Capacitor (tank): time=0.003100   v_1=9.996995 v_2=9.967250  
Capacitor (tank): time=0.003110   v_1=9.997050 v_2=9.967843  
Capacitor (tank): time=0.003120   v_1=9.997103 v_2=9.968425  
Capacitor (tank): time=0.003130   v_1=9.997155 v_2=9.968996  
Capacitor (tank): time=0.003140   v_1=9.997207 v_2=9.969557  
Capacitor (tank): time=0.003150   v_1=9.997257 v_2=9.970107  
Capacitor (tank): time=0.003160   v_1=9.997307 v_2=9.970648  
Capacitor (tank): time=0.003170   v_1=9.997356 v_2=9.971179  
Capacitor (tank): time=0.003180   v_1=9.997404 v_2=9.971701  
Capacitor (tank): time=0.003190   v_1=9.997451 v_2=9.972213  
Capacitor (tank): time=0.003200   v_1=9.997497 v_2=9.972715  
Capacitor (tank): time=0.003210   v_1=9.997542 v_2=9.973209  
Capacitor (tank): time=0.003220   v_1=9.997586 v_2=9.973694  
Capacitor (tank): time=0.003230   v_1=9.997630 v_2=9.974170  
Capacitor (tank): time=0.003240   v_1=9.997673 v_2=9.974637  
Capacitor (tank): time=0.003250   v_1=9.997715 v_2=9.975096  
Capacitor (tank): time=0.003260   v_1=9.997756 v_2=9.975546  
Capacitor (tank): time=0.003270   v_1=9.997797 v_2=9.975989  
Capacitor (tank): time=0.003280   v_1=9.997837 v_2=9.976423  
Capacitor (tank): time=0.003290   v_1=9.997876 v_2=9.976850  
Capacitor (tank): time=0.003300   v_1=9.997914 v_2=9.977269  
Capacitor (tank): time=0.003310   v_1=9.997952 v_2=9.977680  
Capacitor (tank): time=0.003320   v_1=9.997989 v_2=9.978084  
Capacitor (tank): time=0.003330   v_1=9.998026 v_2=9.978480  
Capacitor (tank): time=0.003340   v_1=9.998061 v_2=9.978869  
Capacitor (tank): time=0.003350   v_1=9.998096 v_2=9.979252  
Capacitor (tank): time=0.003360   v_1=9.998131 v_2=9.979627  
Capacitor (tank): time=0.003370   v_1=9.998165 v_2=9.979996  
Capacitor (tank): time=0.003380   v_1=9.998198 v_2=9.980358  
Capacitor (tank): time=0.003390   v_1=9.998230 v_2=9.980713  
Capacitor (tank): time=0.003400   v_1=9.998262 v_2=9.981062  
Capacitor (tank): time=0.003410   v_1=9.998294 v_2=9.981404  
Capacitor (tank): time=0.003420   v_1=9.998325 v_2=9.981741  
Capacitor (tank): time=0.003430   v_1=9.998355 v_2=9.982071  
Capacitor (tank): time=0.003440   v_1=9.998385 v_2=9.982396  
Capacitor (tank): time=0.003450   v_1=9.998414 v_2=9.982714  
Capacitor (tank): time=0.003460   v_1=9.998443 v_2=9.983027  
Capacitor (tank): time=0.003470   v_1=9.998471 v_2=9.983334  
Capacitor (tank): time=0.003480   v_1=9.998499 v_2=9.983635  
Capacitor (tank): time=0.003490   v_1=9.998526 v_2=9.983931  
Capacitor (tank): time=0.003500   v_1=9.998552 v_2=9.984222  
Capacitor (tank): time=0.003510   v_1=9.998579 v_2=9.984508  
Capacitor (tank): time=0.003520   v_1=9.998604 v_2=9.984788  
Capacitor (tank): time=0.003530   v_1=9.998630 v_2=9.985063  
Capacitor (tank): time=0.003540   v_1=9.998654 v_2=9.985333  
Capacitor (tank): time=0.003550   v_1=9.998679 v_2=9.985599  
Capacitor (tank): time=0.003560   v_1=9.998703 v_2=9.985859  
Capacitor (tank): time=0.003570   v_1=9.998726 v_2=9.986115  
Capacitor (tank): time=0.003580   v_1=9.998749 v_2=9.986366  
Capacitor (tank): time=0.003590   v_1=9.998772 v_2=9.986613  
Capacitor (tank): time=0.003600   v_1=9.998794 v_2=9.986855  
Capacitor (tank): time=0.003610   v_1=9.998816 v_2=9.987093  
Capacitor (tank): time=0.003620   v_1=9.998837 v_2=9.987326  
Capacitor (tank): time=0.003630   v_1=9.998858 v_2=9.987556  
Capacitor (tank): time=0.003640   v_1=9.998879 v_2=9.987781  
Capacitor (tank): time=0.003650   v_1=9.998899 v_2=9.988002  
Capacitor (tank): time=0.003660   v_1=9.998919 v_2=9.988219  
Capacitor (tank): time=0.003670   v_1=9.998939 v_2=9.988432  
Capacitor (tank): time=0.003680   v_1=9.998958 v_2=9.988641  
Capacitor (tank): time=0.003690   v_1=9.998977 v_2=9.988847  
Capacitor (tank): time=0.003700   v_1=9.998995 v_2=9.989049  
Capacitor (tank): time=0.003710   v_1=9.999013 v_2=9.989247  
Capacitor (tank): time=0.003720   v_1=9.999031 v_2=9.989441  
Capacitor (tank): time=0.003730   v_1=9.999049 v_2=9.989632  
Capacitor (tank): time=0.003740   v_1=9.999066 v_2=9.989820  
Capacitor (tank): time=0.003750   v_1=9.999083 v_2=9.990004  
Capacitor (tank): time=0.003760   v_1=9.999099 v_2=9.990185  
Capacitor (tank): time=0.003770   v_1=9.999116 v_2=9.990362  
Capacitor (tank): time=0.003780   v_1=9.999132 v_2=9.990537  
Capacitor (tank): time=0.003790   v_1=9.999147 v_2=9.990708  
Capacitor (tank): time=0.003800   v_1=9.999163 v_2=9.990876  
Capacitor (tank): time=0.003810   v_1=9.999178 v_2=9.991041  
Capacitor (tank): time=0.003820   v_1=9.999193 v_2=9.991203  
Capacitor (tank): time=0.003830   v_1=9.999208 v_2=9.991362  
Capacitor (tank): time=0.003840   v_1=9.999222 v_2=9.991519  
Capacitor (tank): time=0.003850   v_1=9.999236 v_2=9.991672  
Capacitor (tank): time=0.003860   v_1=9.999250 v_2=9.991823  
Capacitor (tank): time=0.003870   v_1=9.999263 v_2=9.991971  
Capacitor (tank): time=0.003880   v_1=9.999277 v_2=9.992116  
Capacitor (tank): time=0.003890   v_1=9.999290 v_2=9.992259  
Capacitor (tank): time=0.003900   v_1=9.999303 v_2=9.992399  
Capacitor (tank): time=0.003910   v_1=9.999315 v_2=9.992536  
Capacitor (tank): time=0.003920   v_1=9.999328 v_2=9.992671  
Capacitor (tank): time=0.003930   v_1=9.999340 v_2=9.992804  
Capacitor (tank): time=0.003940   v_1=9.999352 v_2=9.992934  
Capacitor (tank): time=0.003950   v_1=9.999363 v_2=9.993062  
Capacitor (tank): time=0.003960   v_1=9.999375 v_2=9.993187  
Capacitor (tank): time=0.003970   v_1=9.999386 v_2=9.993311  
Capacitor (tank): time=0.003980   v_1=9.999397 v_2=9.993432  
Capacitor (tank): time=0.003990   v_1=9.999408 v_2=9.993550  
Capacitor (tank): time=0.004000   v_1=9.999419 v_2=9.993667  
Capacitor (tank): time=0.004010   v_1=9.999429 v_2=9.993782  
Capacitor (tank): time=0.004020   v_1=9.999440 v_2=9.993894  
Capacitor (tank): time=0.004030   v_1=9.999450 v_2=9.994005  
Capacitor (tank): time=0.004040   v_1=9.999460 v_2=9.994113  
Capacitor (tank): time=0.004050   v_1=9.999470 v_2=9.994220  
Capacitor (tank): time=0.004060   v_1=9.999479 v_2=9.994324  
Capacitor (tank): time=0.004070   v_1=9.999489 v_2=9.994427  
Capacitor (tank): time=0.004080   v_1=9.999498 v_2=9.994528  
Capacitor (tank): time=0.004090   v_1=9.999507 v_2=9.994627  
Capacitor (tank): time=0.004100   v_1=9.999516 v_2=9.994724  
Capacitor (tank): time=0.004110   v_1=9.999525 v_2=9.994819  
Capacitor (tank): time=0.004120   v_1=9.999533 v_2=9.994913  
Capacitor (tank): time=0.004130   v_1=9.999542 v_2=9.995005  
Capacitor (tank): time=0.004140   v_1=9.999550 v_2=9.995096  
Capacitor (tank): time=0.004150   v_1=9.999558 v_2=9.995184  
Capacitor (tank): time=0.004160   v_1=9.999566 v_2=9.995271  
Capacitor (tank): time=0.004170   v_1=9.999574 v_2=9.995357  
Capacitor (tank): time=0.004180   v_1=9.999582 v_2=9.995441  
Capacitor (tank): time=0.004190   v_1=9.999589 v_2=9.995523  
Capacitor (tank): time=0.004200   v_1=9.999597 v_2=9.995604  
Capacitor (tank): time=0.004210   v_1=9.999604 v_2=9.995684  
Capacitor (tank): time=0.004220   v_1=9.999611 v_2=9.995762  
Capacitor (tank): time=0.004230   v_1=9.999618 v_2=9.995839  
Capacitor (tank): time=0.004240   v_1=9.999625 v_2=9.995914  
Capacitor (tank): time=0.004250   v_1=9.999632 v_2=9.995988  
Capacitor (tank): time=0.004260   v_1=9.999639 v_2=9.996060  
Capacitor (tank): time=0.004270   v_1=9.999645 v_2=9.996132  
Capacitor (tank): time=0.004280   v_1=9.999652 v_2=9.996202  
Capacitor (tank): time=0.004290   v_1=9.999658 v_2=9.996270  
Capacitor (tank): time=0.004300   v_1=9.999664 v_2=9.996338  
Capacitor (tank): time=0.004310   v_1=9.999670 v_2=9.996404  
Capacitor (tank): time=0.004320   v_1=9.999676 v_2=9.996469  
Capacitor (tank): time=0.004330   v_1=9.999682 v_2=9.996533  
Capacitor (tank): time=0.004340   v_1=9.999688 v_2=9.996596  
Capacitor (tank): time=0.004350   v_1=9.999693 v_2=9.996657  
Capacitor (tank): time=0.004360   v_1=9.999699 v_2=9.996718  
Capacitor (tank): time=0.004370   v_1=9.999704 v_2=9.996777  
Capacitor (tank): time=0.004380   v_1=9.999710 v_2=9.996836  
Capacitor (tank): time=0.004390   v_1=9.999715 v_2=9.996893  
Capacitor (tank): time=0.004400   v_1=9.999720 v_2=9.996949  
Capacitor (tank): time=0.004410   v_1=9.999725 v_2=9.997004  
Capacitor (tank): time=0.004420   v_1=9.999730 v_2=9.997058  
Capacitor (tank): time=0.004430   v_1=9.999735 v_2=9.997112  
Capacitor (tank): time=0.004440   v_1=9.999740 v_2=9.997164  
Capacitor (tank): time=0.004450   v_1=9.999744 v_2=9.997215  
Capacitor (tank): time=0.004460   v_1=9.999749 v_2=9.997266  
Capacitor (tank): time=0.004470   v_1=9.999754 v_2=9.997315  
Capacitor (tank): time=0.004480   v_1=9.999758 v_2=9.997364  
Capacitor (tank): time=0.004490   v_1=9.999762 v_2=9.997411  
Capacitor (tank): time=0.004500   v_1=9.999767 v_2=9.997458  
Capacitor (tank): time=0.004510   v_1=9.999771 v_2=9.997504  
Capacitor (tank): time=0.004520   v_1=9.999775 v_2=9.997549  
Capacitor (tank): time=0.004530   v_1=9.999779 v_2=9.997594  
Capacitor (tank): time=0.004540   v_1=9.999783 v_2=9.997637  
Capacitor (tank): time=0.004550   v_1=9.999787 v_2=9.997680  
Capacitor (tank): time=0.004560   v_1=9.999791 v_2=9.997722  
Capacitor (tank): time=0.004570   v_1=9.999795 v_2=9.997763  
Capacitor (tank): time=0.004580   v_1=9.999798 v_2=9.997804  
Capacitor (tank): time=0.004590   v_1=9.999802 v_2=9.997843  
Capacitor (tank): time=0.004600   v_1=9.999806 v_2=9.997882  
Capacitor (tank): time=0.004610   v_1=9.999809 v_2=9.997921  
Capacitor (tank): time=0.004620   v_1=9.999813 v_2=9.997958  
Capacitor (tank): time=0.004630   v_1=9.999816 v_2=9.997995  
Capacitor (tank): time=0.004640   v_1=9.999819 v_2=9.998031  
Capacitor (tank): time=0.004650   v_1=9.999823 v_2=9.998067  
Capacitor (tank): time=0.004660   v_1=9.999826 v_2=9.998102  
Capacitor (tank): time=0.004670   v_1=9.999829 v_2=9.998136  
Capacitor (tank): time=0.004680   v_1=9.999832 v_2=9.998170  
Capacitor (tank): time=0.004690   v_1=9.999835 v_2=9.998203  
Capacitor (tank): time=0.004700   v_1=9.999838 v_2=9.998236  
Capacitor (tank): time=0.004710   v_1=9.999841 v_2=9.998268  
Capacitor (tank): time=0.004720   v_1=9.999844 v_2=9.998299  
Capacitor (tank): time=0.004730   v_1=9.999847 v_2=9.998330  
Capacitor (tank): time=0.004740   v_1=9.999850 v_2=9.998360  
Capacitor (tank): time=0.004750   v_1=9.999852 v_2=9.998390  
Capacitor (tank): time=0.004760   v_1=9.999855 v_2=9.998419  
Capacitor (tank): time=0.004770   v_1=9.999858 v_2=9.998447  
Capacitor (tank): time=0.004780   v_1=9.999860 v_2=9.998475  
Capacitor (tank): time=0.004790   v_1=9.999863 v_2=9.998503  
Capacitor (tank): time=0.004800   v_1=9.999865 v_2=9.998530  
Capacitor (tank): time=0.004810   v_1=9.999868 v_2=9.998557  
Capacitor (tank): time=0.004820   v_1=9.999870 v_2=9.998583  
Capacitor (tank): time=0.004830   v_1=9.999872 v_2=9.998608  
Capacitor (tank): time=0.004840   v_1=9.999875 v_2=9.998634  
Capacitor (tank): time=0.004850   v_1=9.999877 v_2=9.998658  
Capacitor (tank): time=0.004860   v_1=9.999879 v_2=9.998683  
Capacitor (tank): time=0.004870   v_1=9.999881 v_2=9.998706  
Capacitor (tank): time=0.004880   v_1=9.999883 v_2=9.998730  
Capacitor (tank): time=0.004890   v_1=9.999886 v_2=9.998753  
Capacitor (tank): time=0.004900   v_1=9.999888 v_2=9.998775  
Capacitor (tank): time=0.004910   v_1=9.999890 v_2=9.998798  
Capacitor (tank): time=0.004920   v_1=9.999892 v_2=9.998819  
Capacitor (tank): time=0.004930   v_1=9.999894 v_2=9.998841  
Capacitor (tank): time=0.004940   v_1=9.999896 v_2=9.998862  
Capacitor (tank): time=0.004950   v_1=9.999897 v_2=9.998882  
Capacitor (tank): time=0.004960   v_1=9.999899 v_2=9.998902  
Capacitor (tank): time=0.004970   v_1=9.999901 v_2=9.998922  
Capacitor (tank): time=0.004980   v_1=9.999903 v_2=9.998942  
Capacitor (tank): time=0.004990   v_1=9.999905 v_2=9.998961  
Capacitor (tank): time=0.005000   v_1=9.999906 v_2=9.998980  
Capacitor (tank): time=0.005010   v_1=9.999908 v_2=9.998998  
Capacitor (tank): time=0.005020   v_1=9.999910 v_2=9.999016  
Capacitor (tank): time=0.005030   v_1=9.999911 v_2=9.999034  
Capacitor (tank): time=0.005040   v_1=9.999913 v_2=9.999052  
Capacitor (tank): time=0.005050   v_1=9.999915 v_2=9.999069  
Capacitor (tank): time=0.005060   v_1=9.999916 v_2=9.999086  
Capacitor (tank): time=0.005070   v_1=9.999918 v_2=9.999102  
Capacitor (tank): time=0.005080   v_1=9.999919 v_2=9.999118  
Capacitor (tank): time=0.005090   v_1=9.999921 v_2=9.999134  
Capacitor (tank): time=0.005100   v_1=9.999922 v_2=9.999150  
Capacitor (tank): time=0.005110   v_1=9.999923 v_2=9.999165  
Capacitor (tank): time=0.005120   v_1=9.999925 v_2=9.999180  
Capacitor (tank): time=0.005130   v_1=9.999926 v_2=9.999195  
Capacitor (tank): time=0.005140   v_1=9.999928 v_2=9.999210  
Capacitor (tank): time=0.005150   v_1=9.999929 v_2=9.999224  
Capacitor (tank): time=0.005160   v_1=9.999930 v_2=9.999238  
Capacitor (tank): time=0.005170   v_1=9.999931 v_2=9.999252  
Capacitor (tank): time=0.005180   v_1=9.999933 v_2=9.999266  
Capacitor (tank): time=0.005190   v_1=9.999934 v_2=9.999279  
Capacitor (tank): time=0.005200   v_1=9.999935 v_2=9.999292  
Capacitor (tank): time=0.005210   v_1=9.999936 v_2=9.999305  
Capacitor (tank): time=0.005220   v_1=9.999937 v_2=9.999317  
Capacitor (tank): time=0.005230   v_1=9.999938 v_2=9.999330  
Capacitor (tank): time=0.005240   v_1=9.999940 v_2=9.999342  
Capacitor (tank): time=0.005250   v_1=9.999941 v_2=9.999354  
Capacitor (tank): time=0.005260   v_1=9.999942 v_2=9.999365  
Capacitor (tank): time=0.005270   v_1=9.999943 v_2=9.999377  
Capacitor (tank): time=0.005280   v_1=9.999944 v_2=9.999388  
Capacitor (tank): time=0.005290   v_1=9.999945 v_2=9.999399  
Capacitor (tank): time=0.005300   v_1=9.999946 v_2=9.999410  
Capacitor (tank): time=0.005310   v_1=9.999947 v_2=9.999421  
Capacitor (tank): time=0.005320   v_1=9.999948 v_2=9.999431  
Capacitor (tank): time=0.005330   v_1=9.999949 v_2=9.999441  
Capacitor (tank): time=0.005340   v_1=9.999950 v_2=9.999452  
Capacitor (tank): time=0.005350   v_1=9.999951 v_2=9.999461  
Capacitor (tank): time=0.005360   v_1=9.999951 v_2=9.999471  
Capacitor (tank): time=0.005370   v_1=9.999952 v_2=9.999481  
Capacitor (tank): time=0.005380   v_1=9.999953 v_2=9.999490  
Capacitor (tank): time=0.005390   v_1=9.999954 v_2=9.999499  
Capacitor (tank): time=0.005400   v_1=9.999955 v_2=9.999508  
Capacitor (tank): time=0.005410   v_1=9.999956 v_2=9.999517  
Capacitor (tank): time=0.005420   v_1=9.999957 v_2=9.999526  
Capacitor (tank): time=0.005430   v_1=9.999957 v_2=9.999535  
Capacitor (tank): time=0.005440   v_1=9.999958 v_2=9.999543  
Capacitor (tank): time=0.005450   v_1=9.999959 v_2=9.999551  
Capacitor (tank): time=0.005460   v_1=9.999960 v_2=9.999559  
Capacitor (tank): time=0.005470   v_1=9.999960 v_2=9.999567  
Capacitor (tank): time=0.005480   v_1=9.999961 v_2=9.999575  
Capacitor (tank): time=0.005490   v_1=9.999962 v_2=9.999583  
Capacitor (tank): time=0.005500   v_1=9.999962 v_2=9.999591  
Capacitor (tank): time=0.005510   v_1=9.999963 v_2=9.999598  
Capacitor (tank): time=0.005520   v_1=9.999964 v_2=9.999605  
Capacitor (tank): time=0.005530   v_1=9.999964 v_2=9.999612  
Capacitor (tank): time=0.005540   v_1=9.999965 v_2=9.999619  
Capacitor (tank): time=0.005550   v_1=9.999966 v_2=9.999626  
Capacitor (tank): time=0.005560   v_1=9.999966 v_2=9.999633  
Capacitor (tank): time=0.005570   v_1=9.999967 v_2=9.999640  
Capacitor (tank): time=0.005580   v_1=9.999968 v_2=9.999646  
Capacitor (tank): time=0.005590   v_1=9.999968 v_2=9.999653  
Capacitor (tank): time=0.005600   v_1=9.999969 v_2=9.999659  
Capacitor (tank): time=0.005610   v_1=9.999969 v_2=9.999665  
Capacitor (tank): time=0.005620   v_1=9.999970 v_2=9.999671  
Capacitor (tank): time=0.005630   v_1=9.999970 v_2=9.999677  
Capacitor (tank): time=0.005640   v_1=9.999971 v_2=9.999683  
Capacitor (tank): time=0.005650   v_1=9.999971 v_2=9.999689  
Capacitor (tank): time=0.005660   v_1=9.999972 v_2=9.999694  
Capacitor (tank): time=0.005670   v_1=9.999972 v_2=9.999700  
Capacitor (tank): time=0.005680   v_1=9.999973 v_2=9.999705  
Capacitor (tank): time=0.005690   v_1=9.999973 v_2=9.999711  
Capacitor (tank): time=0.005700   v_1=9.999974 v_2=9.999716  
Capacitor (tank): time=0.005710   v_1=9.999974 v_2=9.999721  
Capacitor (tank): time=0.005720   v_1=9.999975 v_2=9.999726  
Capacitor (tank): time=0.005730   v_1=9.999975 v_2=9.999731  
Capacitor (tank): time=0.005740   v_1=9.999976 v_2=9.999736  
Capacitor (tank): time=0.005750   v_1=9.999976 v_2=9.999741  
Capacitor (tank): time=0.005760   v_1=9.999977 v_2=9.999745  
Capacitor (tank): time=0.005770   v_1=9.999977 v_2=9.999750  
Capacitor (tank): time=0.005780   v_1=9.999977 v_2=9.999754  
Capacitor (tank): time=0.005790   v_1=9.999978 v_2=9.999759  
Capacitor (tank): time=0.005800   v_1=9.999978 v_2=9.999763  
Capacitor (tank): time=0.005810   v_1=9.999979 v_2=9.999767  
Capacitor (tank): time=0.005820   v_1=9.999979 v_2=9.999772  
Capacitor (tank): time=0.005830   v_1=9.999979 v_2=9.999776  
Capacitor (tank): time=0.005840   v_1=9.999980 v_2=9.999780  
Capacitor (tank): time=0.005850   v_1=9.999980 v_2=9.999784  
Capacitor (tank): time=0.005860   v_1=9.999981 v_2=9.999788  
Capacitor (tank): time=0.005870   v_1=9.999981 v_2=9.999792  
Capacitor (tank): time=0.005880   v_1=9.999981 v_2=9.999795  
Capacitor (tank): time=0.005890   v_1=9.999982 v_2=9.999799  
Capacitor (tank): time=0.005900   v_1=9.999982 v_2=9.999803  
Capacitor (tank): time=0.005910   v_1=9.999982 v_2=9.999806  
Capacitor (tank): time=0.005920   v_1=9.999983 v_2=9.999810  
Capacitor (tank): time=0.005930   v_1=9.999983 v_2=9.999813  
Capacitor (tank): time=0.005940   v_1=9.999983 v_2=9.999817  
Capacitor (tank): time=0.005950   v_1=9.999983 v_2=9.999820  
Capacitor (tank): time=0.005960   v_1=9.999984 v_2=9.999823  
Capacitor (tank): time=0.005970   v_1=9.999984 v_2=9.999826  
Capacitor (tank): time=0.005980   v_1=9.999984 v_2=9.999830  
Capacitor (tank): time=0.005990   v_1=9.999985 v_2=9.999833  
Capacitor (tank): time=0.006000   v_1=9.999985 v_2=9.999836  
Capacitor (tank): time=0.006010   v_1=9.999985 v_2=9.999839  
Capacitor (tank): time=0.006020   v_1=9.999985 v_2=9.999842  
Capacitor (tank): time=0.006030   v_1=9.999986 v_2=9.999844  
Capacitor (tank): time=0.006040   v_1=9.999986 v_2=9.999847  
Capacitor (tank): time=0.006050   v_1=9.999986 v_2=9.999850  
Capacitor (tank): time=0.006060   v_1=9.999986 v_2=9.999853  
Capacitor (tank): time=0.006070   v_1=9.999987 v_2=9.999855  
Capacitor (tank): time=0.006080   v_1=9.999987 v_2=9.999858  
Capacitor (tank): time=0.006090   v_1=9.999987 v_2=9.999861  
Capacitor (tank): time=0.006100   v_1=9.999987 v_2=9.999863  
Capacitor (tank): time=0.006110   v_1=9.999988 v_2=9.999866  
Capacitor (tank): time=0.006120   v_1=9.999988 v_2=9.999868  
Capacitor (tank): time=0.006130   v_1=9.999988 v_2=9.999870  
Capacitor (tank): time=0.006140   v_1=9.999988 v_2=9.999873  
Capacitor (tank): time=0.006150   v_1=9.999989 v_2=9.999875  
Capacitor (tank): time=0.006160   v_1=9.999989 v_2=9.999877  
Capacitor (tank): time=0.006170   v_1=9.999989 v_2=9.999879  
Capacitor (tank): time=0.006180   v_1=9.999989 v_2=9.999882  
Capacitor (tank): time=0.006190   v_1=9.999989 v_2=9.999884  
Capacitor (tank): time=0.006200   v_1=9.999990 v_2=9.999886  
Capacitor (tank): time=0.006210   v_1=9.999990 v_2=9.999888  
Capacitor (tank): time=0.006220   v_1=9.999990 v_2=9.999890  
Capacitor (tank): time=0.006230   v_1=9.999990 v_2=9.999892  
Capacitor (tank): time=0.006240   v_1=9.999990 v_2=9.999894  
Capacitor (tank): time=0.006250   v_1=9.999990 v_2=9.999896  
Capacitor (tank): time=0.006260   v_1=9.999991 v_2=9.999898  
Capacitor (tank): time=0.006270   v_1=9.999991 v_2=9.999900  
Capacitor (tank): time=0.006280   v_1=9.999991 v_2=9.999901  
Capacitor (tank): time=0.006290   v_1=9.999991 v_2=9.999903  
Capacitor (tank): time=0.006300   v_1=9.999991 v_2=9.999905  
Capacitor (tank): time=0.006310   v_1=9.999991 v_2=9.999907  
Capacitor (tank): time=0.006320   v_1=9.999992 v_2=9.999908  
Capacitor (tank): time=0.006330   v_1=9.999992 v_2=9.999910  
Capacitor (tank): time=0.006340   v_1=9.999992 v_2=9.999912  
Capacitor (tank): time=0.006350   v_1=9.999992 v_2=9.999913  
Capacitor (tank): time=0.006360   v_1=9.999992 v_2=9.999915  
Capacitor (tank): time=0.006370   v_1=9.999992 v_2=9.999916  
Capacitor (tank): time=0.006380   v_1=9.999992 v_2=9.999918  
Capacitor (tank): time=0.006390   v_1=9.999993 v_2=9.999919  
Capacitor (tank): time=0.006400   v_1=9.999993 v_2=9.999921  
Capacitor (tank): time=0.006410   v_1=9.999993 v_2=9.999922  
Capacitor (tank): time=0.006420   v_1=9.999993 v_2=9.999924  
Capacitor (tank): time=0.006430   v_1=9.999993 v_2=9.999925  
Capacitor (tank): time=0.006440   v_1=9.999993 v_2=9.999926  
Capacitor (tank): time=0.006450   v_1=9.999993 v_2=9.999928  
Capacitor (tank): time=0.006460   v_1=9.999993 v_2=9.999929  
Capacitor (tank): time=0.006470   v_1=9.999994 v_2=9.999930  
Capacitor (tank): time=0.006480   v_1=9.999994 v_2=9.999932  
Capacitor (tank): time=0.006490   v_1=9.999994 v_2=9.999933  
Capacitor (tank): time=0.006500   v_1=9.999994 v_2=9.999934  
Capacitor (tank): time=0.006510   v_1=9.999994 v_2=9.999935  
Capacitor (tank): time=0.006520   v_1=9.999994 v_2=9.999936  
Capacitor (tank): time=0.006530   v_1=9.999994 v_2=9.999938  
Capacitor (tank): time=0.006540   v_1=9.999994 v_2=9.999939  
Capacitor (tank): time=0.006550   v_1=9.999994 v_2=9.999940  
Capacitor (tank): time=0.006560   v_1=9.999995 v_2=9.999941  
Capacitor (tank): time=0.006570   v_1=9.999995 v_2=9.999942  
Capacitor (tank): time=0.006580   v_1=9.999995 v_2=9.999943  
Capacitor (tank): time=0.006590   v_1=9.999995 v_2=9.999944  
Capacitor (tank): time=0.006600   v_1=9.999995 v_2=9.999945  
Capacitor (tank): time=0.006610   v_1=9.999995 v_2=9.999946  
Capacitor (tank): time=0.006620   v_1=9.999995 v_2=9.999947  
Capacitor (tank): time=0.006630   v_1=9.999995 v_2=9.999948  
Capacitor (tank): time=0.006640   v_1=9.999995 v_2=9.999949  
Capacitor (tank): time=0.006650   v_1=9.999995 v_2=9.999950  
Capacitor (tank): time=0.006660   v_1=9.999995 v_2=9.999951  
Capacitor (tank): time=0.006670   v_1=9.999996 v_2=9.999952  
Capacitor (tank): time=0.006680   v_1=9.999996 v_2=9.999953  
Capacitor (tank): time=0.006690   v_1=9.999996 v_2=9.999953  
Capacitor (tank): time=0.006700   v_1=9.999996 v_2=9.999954  
Capacitor (tank): time=0.006710   v_1=9.999996 v_2=9.999955  
Capacitor (tank): time=0.006720   v_1=9.999996 v_2=9.999956  
Capacitor (tank): time=0.006730   v_1=9.999996 v_2=9.999957  
Capacitor (tank): time=0.006740   v_1=9.999996 v_2=9.999957  
Capacitor (tank): time=0.006750   v_1=9.999996 v_2=9.999958  
Capacitor (tank): time=0.006760   v_1=9.999996 v_2=9.999959  
Capacitor (tank): time=0.006770   v_1=9.999996 v_2=9.999960  
Capacitor (tank): time=0.006780   v_1=9.999996 v_2=9.999960  
Capacitor (tank): time=0.006790   v_1=9.999996 v_2=9.999961  
Capacitor (tank): time=0.006800   v_1=9.999996 v_2=9.999962  
Capacitor (tank): time=0.006810   v_1=9.999997 v_2=9.999963  
Capacitor (tank): time=0.006820   v_1=9.999997 v_2=9.999963  
Capacitor (tank): time=0.006830   v_1=9.999997 v_2=9.999964  
Capacitor (tank): time=0.006840   v_1=9.999997 v_2=9.999965  
Capacitor (tank): time=0.006850   v_1=9.999997 v_2=9.999965  
Capacitor (tank): time=0.006860   v_1=9.999997 v_2=9.999966  
Capacitor (tank): time=0.006870   v_1=9.999997 v_2=9.999966  
Capacitor (tank): time=0.006880   v_1=9.999997 v_2=9.999967  
Capacitor (tank): time=0.006890   v_1=9.999997 v_2=9.999968  
Capacitor (tank): time=0.006900   v_1=9.999997 v_2=9.999968  
Capacitor (tank): time=0.006910   v_1=9.999997 v_2=9.999969  
Capacitor (tank): time=0.006920   v_1=9.999997 v_2=9.999969  
Capacitor (tank): time=0.006930   v_1=9.999997 v_2=9.999970  
Capacitor (tank): time=0.006940   v_1=9.999997 v_2=9.999970  
Capacitor (tank): time=0.006950   v_1=9.999997 v_2=9.999971  
Capacitor (tank): time=0.006960   v_1=9.999997 v_2=9.999972  
Capacitor (tank): time=0.006970   v_1=9.999997 v_2=9.999972  
Capacitor (tank): time=0.006980   v_1=9.999997 v_2=9.999973  
Capacitor (tank): time=0.006990   v_1=9.999998 v_2=9.999973  
Capacitor (tank): time=0.007000   v_1=9.999998 v_2=9.999974  
Capacitor (tank): time=0.007010   v_1=9.999998 v_2=9.999974  
Capacitor (tank): time=0.007020   v_1=9.999998 v_2=9.999974  
Capacitor (tank): time=0.007030   v_1=9.999998 v_2=9.999975  
Capacitor (tank): time=0.007040   v_1=9.999998 v_2=9.999975  
Capacitor (tank): time=0.007050   v_1=9.999998 v_2=9.999976  
Capacitor (tank): time=0.007060   v_1=9.999998 v_2=9.999976  
Capacitor (tank): time=0.007070   v_1=9.999998 v_2=9.999977  
Capacitor (tank): time=0.007080   v_1=9.999998 v_2=9.999977  
Capacitor (tank): time=0.007090   v_1=9.999998 v_2=9.999978  
Capacitor (tank): time=0.007100   v_1=9.999998 v_2=9.999978  
Capacitor (tank): time=0.007110   v_1=9.999998 v_2=9.999978  
Capacitor (tank): time=0.007120   v_1=9.999998 v_2=9.999979  
Capacitor (tank): time=0.007130   v_1=9.999998 v_2=9.999979  
Capacitor (tank): time=0.007140   v_1=9.999998 v_2=9.999979  
Capacitor (tank): time=0.007150   v_1=9.999998 v_2=9.999980  
Capacitor (tank): time=0.007160   v_1=9.999998 v_2=9.999980  
Capacitor (tank): time=0.007170   v_1=9.999998 v_2=9.999981  
Capacitor (tank): time=0.007180   v_1=9.999998 v_2=9.999981  
Capacitor (tank): time=0.007190   v_1=9.999998 v_2=9.999981  
Capacitor (tank): time=0.007200   v_1=9.999998 v_2=9.999982  
Capacitor (tank): time=0.007210   v_1=9.999998 v_2=9.999982  
Capacitor (tank): time=0.007220   v_1=9.999998 v_2=9.999982  
Capacitor (tank): time=0.007230   v_1=9.999998 v_2=9.999983  
Capacitor (tank): time=0.007240   v_1=9.999998 v_2=9.999983  
Capacitor (tank): time=0.007250   v_1=9.999998 v_2=9.999983  
Capacitor (tank): time=0.007260   v_1=9.999998 v_2=9.999984  
Capacitor (tank): time=0.007270   v_1=9.999999 v_2=9.999984  
Capacitor (tank): time=0.007280   v_1=9.999999 v_2=9.999984  
Capacitor (tank): time=0.007290   v_1=9.999999 v_2=9.999984  
Capacitor (tank): time=0.007300   v_1=9.999999 v_2=9.999985  
Capacitor (tank): time=0.007310   v_1=9.999999 v_2=9.999985  
Capacitor (tank): time=0.007320   v_1=9.999999 v_2=9.999985  
Capacitor (tank): time=0.007330   v_1=9.999999 v_2=9.999986  
Capacitor (tank): time=0.007340   v_1=9.999999 v_2=9.999986  
Capacitor (tank): time=0.007350   v_1=9.999999 v_2=9.999986  
Capacitor (tank): time=0.007360   v_1=9.999999 v_2=9.999986  
Capacitor (tank): time=0.007370   v_1=9.999999 v_2=9.999987  
Capacitor (tank): time=0.007380   v_1=9.999999 v_2=9.999987  
Capacitor (tank): time=0.007390   v_1=9.999999 v_2=9.999987  
Capacitor (tank): time=0.007400   v_1=9.999999 v_2=9.999987  
Capacitor (tank): time=0.007410   v_1=9.999999 v_2=9.999987  
Capacitor (tank): time=0.007420   v_1=9.999999 v_2=9.999988  
Capacitor (tank): time=0.007430   v_1=9.999999 v_2=9.999988  
Capacitor (tank): time=0.007440   v_1=9.999999 v_2=9.999988  
Capacitor (tank): time=0.007450   v_1=9.999999 v_2=9.999988  
Capacitor (tank): time=0.007460   v_1=9.999999 v_2=9.999989  
Capacitor (tank): time=0.007470   v_1=9.999999 v_2=9.999989  
Capacitor (tank): time=0.007480   v_1=9.999999 v_2=9.999989  
Capacitor (tank): time=0.007490   v_1=9.999999 v_2=9.999989  
Capacitor (tank): time=0.007500   v_1=9.999999 v_2=9.999989  
Capacitor (tank): time=0.007510   v_1=9.999999 v_2=9.999990  
Capacitor (tank): time=0.007520   v_1=9.999999 v_2=9.999990  
Capacitor (tank): time=0.007530   v_1=9.999999 v_2=9.999990  
Capacitor (tank): time=0.007540   v_1=9.999999 v_2=9.999990  
Capacitor (tank): time=0.007550   v_1=9.999999 v_2=9.999990  
Capacitor (tank): time=0.007560   v_1=9.999999 v_2=9.999990  
Capacitor (tank): time=0.007570   v_1=9.999999 v_2=9.999991  
Capacitor (tank): time=0.007580   v_1=9.999999 v_2=9.999991  
Capacitor (tank): time=0.007590   v_1=9.999999 v_2=9.999991  
Capacitor (tank): time=0.007600   v_1=9.999999 v_2=9.999991  
Capacitor (tank): time=0.007610   v_1=9.999999 v_2=9.999991  
Capacitor (tank): time=0.007620   v_1=9.999999 v_2=9.999991  
Capacitor (tank): time=0.007630   v_1=9.999999 v_2=9.999992  
Capacitor (tank): time=0.007640   v_1=9.999999 v_2=9.999992  
Capacitor (tank): time=0.007650   v_1=9.999999 v_2=9.999992  
Capacitor (tank): time=0.007660   v_1=9.999999 v_2=9.999992  
Capacitor (tank): time=0.007670   v_1=9.999999 v_2=9.999992  
Capacitor (tank): time=0.007680   v_1=9.999999 v_2=9.999992  
Capacitor (tank): time=0.007690   v_1=9.999999 v_2=9.999992  
Capacitor (tank): time=0.007700   v_1=9.999999 v_2=9.999993  
Capacitor (tank): time=0.007710   v_1=9.999999 v_2=9.999993  
Capacitor (tank): time=0.007720   v_1=9.999999 v_2=9.999993  
Capacitor (tank): time=0.007730   v_1=9.999999 v_2=9.999993  
Capacitor (tank): time=0.007740   v_1=9.999999 v_2=9.999993  
Capacitor (tank): time=0.007750   v_1=9.999999 v_2=9.999993  
Capacitor (tank): time=0.007760   v_1=9.999999 v_2=9.999993  
Capacitor (tank): time=0.007770   v_1=9.999999 v_2=9.999994  
Capacitor (tank): time=0.007780   v_1=9.999999 v_2=9.999994  
Capacitor (tank): time=0.007790   v_1=9.999999 v_2=9.999994  
Capacitor (tank): time=0.007800   v_1=9.999999 v_2=9.999994  
Capacitor (tank): time=0.007810   v_1=9.999999 v_2=9.999994  
Capacitor (tank): time=0.007820   v_1=9.999999 v_2=9.999994  
Capacitor (tank): time=0.007830   v_1=9.999999 v_2=9.999994  
Capacitor (tank): time=0.007840   v_1=9.999999 v_2=9.999994  
Capacitor (tank): time=0.007850   v_1=9.999999 v_2=9.999994  
Capacitor (tank): time=0.007860   v_1=9.999999 v_2=9.999994  
Capacitor (tank): time=0.007870   v_1=10.000000 v_2=9.999995  
Capacitor (tank): time=0.007880   v_1=10.000000 v_2=9.999995  
Capacitor (tank): time=0.007890   v_1=10.000000 v_2=9.999995  
Capacitor (tank): time=0.007900   v_1=10.000000 v_2=9.999995  
Capacitor (tank): time=0.007910   v_1=10.000000 v_2=9.999995  
Capacitor (tank): time=0.007920   v_1=10.000000 v_2=9.999995  
Capacitor (tank): time=0.007930   v_1=10.000000 v_2=9.999995  
Capacitor (tank): time=0.007940   v_1=10.000000 v_2=9.999995  
Capacitor (tank): time=0.007950   v_1=10.000000 v_2=9.999995  
Capacitor (tank): time=0.007960   v_1=10.000000 v_2=9.999995  
Capacitor (tank): time=0.007970   v_1=10.000000 v_2=9.999995  
Capacitor (tank): time=0.007980   v_1=10.000000 v_2=9.999996  
Capacitor (tank): time=0.007990   v_1=10.000000 v_2=9.999996  
Capacitor (tank): time=0.008000   v_1=10.000000 v_2=9.999996  
Capacitor (tank): time=0.008010   v_1=10.000000 v_2=9.999996  
Capacitor (tank): time=0.008020   v_1=10.000000 v_2=9.999996  
Capacitor (tank): time=0.008030   v_1=10.000000 v_2=9.999996  
Capacitor (tank): time=0.008040   v_1=10.000000 v_2=9.999996  
Capacitor (tank): time=0.008050   v_1=10.000000 v_2=9.999996  
Capacitor (tank): time=0.008060   v_1=10.000000 v_2=9.999996  
Capacitor (tank): time=0.008070   v_1=10.000000 v_2=9.999996  
Capacitor (tank): time=0.008080   v_1=10.000000 v_2=9.999996  
Capacitor (tank): time=0.008090   v_1=10.000000 v_2=9.999996  
Capacitor (tank): time=0.008100   v_1=10.000000 v_2=9.999996  
Capacitor (tank): time=0.008110   v_1=10.000000 v_2=9.999997  
Capacitor (tank): time=0.008120   v_1=10.000000 v_2=9.999997  
Capacitor (tank): time=0.008130   v_1=10.000000 v_2=9.999997  
Capacitor (tank): time=0.008140   v_1=10.000000 v_2=9.999997  
Capacitor (tank): time=0.008150   v_1=10.000000 v_2=9.999997  
Capacitor (tank): time=0.008160   v_1=10.000000 v_2=9.999997  
Capacitor (tank): time=0.008170   v_1=10.000000 v_2=9.999997  
Capacitor (tank): time=0.008180   v_1=10.000000 v_2=9.999997  
Capacitor (tank): time=0.008190   v_1=10.000000 v_2=9.999997  
Capacitor (tank): time=0.008200   v_1=10.000000 v_2=9.999997  
Capacitor (tank): time=0.008210   v_1=10.000000 v_2=9.999997  
Capacitor (tank): time=0.008220   v_1=10.000000 v_2=9.999997  
Capacitor (tank): time=0.008230   v_1=10.000000 v_2=9.999997  
Capacitor (tank): time=0.008240   v_1=10.000000 v_2=9.999997  
Capacitor (tank): time=0.008250   v_1=10.000000 v_2=9.999997  
Capacitor (tank): time=0.008260   v_1=10.000000 v_2=9.999997  
Capacitor (tank): time=0.008270   v_1=10.000000 v_2=9.999997  
Capacitor (tank): time=0.008280   v_1=10.000000 v_2=9.999997  
Capacitor (tank): time=0.008290   v_1=10.000000 v_2=9.999997  
Capacitor (tank): time=0.008300   v_1=10.000000 v_2=9.999998  
Capacitor (tank): time=0.008310   v_1=10.000000 v_2=9.999998  
Capacitor (tank): time=0.008320   v_1=10.000000 v_2=9.999998  
Capacitor (tank): time=0.008330   v_1=10.000000 v_2=9.999998  
Capacitor (tank): time=0.008340   v_1=10.000000 v_2=9.999998  
Capacitor (tank): time=0.008350   v_1=10.000000 v_2=9.999998  
Capacitor (tank): time=0.008360   v_1=10.000000 v_2=9.999998  
Capacitor (tank): time=0.008370   v_1=10.000000 v_2=9.999998  
Capacitor (tank): time=0.008380   v_1=10.000000 v_2=9.999998  
Capacitor (tank): time=0.008390   v_1=10.000000 v_2=9.999998  
Capacitor (tank): time=0.008400   v_1=10.000000 v_2=9.999998  
Capacitor (tank): time=0.008410   v_1=10.000000 v_2=9.999998  
Capacitor (tank): time=0.008420   v_1=10.000000 v_2=9.999998  
Capacitor (tank): time=0.008430   v_1=10.000000 v_2=9.999998  
Capacitor (tank): time=0.008440   v_1=10.000000 v_2=9.999998  
Capacitor (tank): time=0.008450   v_1=10.000000 v_2=9.999998  
Capacitor (tank): time=0.008460   v_1=10.000000 v_2=9.999998  
Capacitor (tank): time=0.008470   v_1=10.000000 v_2=9.999998  
Capacitor (tank): time=0.008480   v_1=10.000000 v_2=9.999998  
Capacitor (tank): time=0.008490   v_1=10.000000 v_2=9.999998  
Capacitor (tank): time=0.008500   v_1=10.000000 v_2=9.999998  
Capacitor (tank): time=0.008510   v_1=10.000000 v_2=9.999998  
Capacitor (tank): time=0.008520   v_1=10.000000 v_2=9.999998  
Capacitor (tank): time=0.008530   v_1=10.000000 v_2=9.999998  
Capacitor (tank): time=0.008540   v_1=10.000000 v_2=9.999998  
Capacitor (tank): time=0.008550   v_1=10.000000 v_2=9.999998  
Capacitor (tank): time=0.008560   v_1=10.000000 v_2=9.999998  
Capacitor (tank): time=0.008570   v_1=10.000000 v_2=9.999998  
Capacitor (tank): time=0.008580   v_1=10.000000 v_2=9.999999  
Capacitor (tank): time=0.008590   v_1=10.000000 v_2=9.999999  
Capacitor (tank): time=0.008600   v_1=10.000000 v_2=9.999999  
Capacitor (tank): time=0.008610   v_1=10.000000 v_2=9.999999  
Capacitor (tank): time=0.008620   v_1=10.000000 v_2=9.999999  
Capacitor (tank): time=0.008630   v_1=10.000000 v_2=9.999999  
Capacitor (tank): time=0.008640   v_1=10.000000 v_2=9.999999  
Capacitor (tank): time=0.008650   v_1=10.000000 v_2=9.999999  
Capacitor (tank): time=0.008660   v_1=10.000000 v_2=9.999999  
Capacitor (tank): time=0.008670   v_1=10.000000 v_2=9.999999  
Capacitor (tank): time=0.008680   v_1=10.000000 v_2=9.999999  
Capacitor (tank): time=0.008690   v_1=10.000000 v_2=9.999999  
Capacitor (tank): time=0.008700   v_1=10.000000 v_2=9.999999  
Capacitor (tank): time=0.008710   v_1=10.000000 v_2=9.999999  
Capacitor (tank): time=0.008720   v_1=10.000000 v_2=9.999999  
Capacitor (tank): time=0.008730   v_1=10.000000 v_2=9.999999  
Capacitor (tank): time=0.008740   v_1=10.000000 v_2=9.999999  
Capacitor (tank): time=0.008750   v_1=10.000000 v_2=9.999999  
Capacitor (tank): time=0.008760   v_1=10.000000 v_2=9.999999  
Capacitor (tank): time=0.008770   v_1=10.000000 v_2=9.999999  
Capacitor (tank): time=0.008780   v_1=10.000000 v_2=9.999999  
Capacitor (tank): time=0.008790   v_1=10.000000 v_2=9.999999  
Capacitor (tank): time=0.008800   v_1=10.000000 v_2=9.999999  
Capacitor (tank): time=0.008810   v_1=10.000000 v_2=9.999999  
Capacitor (tank): time=0.008820   v_1=10.000000 v_2=9.999999  
Capacitor (tank): time=0.008830   v_1=10.000000 v_2=9.999999  
Capacitor (tank): time=0.008840   v_1=10.000000 v_2=9.999999  
Capacitor (tank): time=0.008850   v_1=10.000000 v_2=9.999999  
Capacitor (tank): time=0.008860   v_1=10.000000 v_2=9.999999  
Capacitor (tank): time=0.008870   v_1=10.000000 v_2=9.999999  
Capacitor (tank): time=0.008880   v_1=10.000000 v_2=9.999999  
Capacitor (tank): time=0.008890   v_1=10.000000 v_2=9.999999  
Capacitor (tank): time=0.008900   v_1=10.000000 v_2=9.999999  
Capacitor (tank): time=0.008910   v_1=10.000000 v_2=9.999999  
Capacitor (tank): time=0.008920   v_1=10.000000 v_2=9.999999  
Capacitor (tank): time=0.008930   v_1=10.000000 v_2=9.999999  
Capacitor (tank): time=0.008940   v_1=10.000000 v_2=9.999999  
Capacitor (tank): time=0.008950   v_1=10.000000 v_2=9.999999  
Capacitor (tank): time=0.008960   v_1=10.000000 v_2=9.999999  
Capacitor (tank): time=0.008970   v_1=10.000000 v_2=9.999999  
Capacitor (tank): time=0.008980   v_1=10.000000 v_2=9.999999  
Capacitor (tank): time=0.008990   v_1=10.000000 v_2=9.999999  
Capacitor (tank): time=0.009000   v_1=10.000000 v_2=9.999999  
Capacitor (tank): time=0.009010   v_1=10.000000 v_2=9.999999  
Capacitor (tank): time=0.009020   v_1=10.000000 v_2=9.999999  
Capacitor (tank): time=0.009030   v_1=10.000000 v_2=9.999999  
Capacitor (tank): time=0.009040   v_1=10.000000 v_2=9.999999  
Capacitor (tank): time=0.009050   v_1=10.000000 v_2=9.999999  
Capacitor (tank): time=0.009060   v_1=10.000000 v_2=9.999999  
Capacitor (tank): time=0.009070   v_1=10.000000 v_2=9.999999  
Capacitor (tank): time=0.009080   v_1=10.000000 v_2=9.999999  
Capacitor (tank): time=0.009090   v_1=10.000000 v_2=9.999999  
Capacitor (tank): time=0.009100   v_1=10.000000 v_2=9.999999  
Capacitor (tank): time=0.009110   v_1=10.000000 v_2=9.999999  
Capacitor (tank): time=0.009120   v_1=10.000000 v_2=9.999999  
Capacitor (tank): time=0.009130   v_1=10.000000 v_2=9.999999  
Capacitor (tank): time=0.009140   v_1=10.000000 v_2=9.999999  
Capacitor (tank): time=0.009150   v_1=10.000000 v_2=9.999999  
Capacitor (tank): time=0.009160   v_1=10.000000 v_2=9.999999  
Capacitor (tank): time=0.009170   v_1=10.000000 v_2=9.999999  
Capacitor (tank): time=0.009180   v_1=10.000000 v_2=10.000000  
Capacitor (tank): time=0.009190   v_1=10.000000 v_2=10.000000  
Capacitor (tank): time=0.009200   v_1=10.000000 v_2=10.000000  
Capacitor (tank): time=0.009210   v_1=10.000000 v_2=10.000000  
Capacitor (tank): time=0.009220   v_1=10.000000 v_2=10.000000  
Capacitor (tank): time=0.009230   v_1=10.000000 v_2=10.000000  
Capacitor (tank): time=0.009240   v_1=10.000000 v_2=10.000000  
Capacitor (tank): time=0.009250   v_1=10.000000 v_2=10.000000  
Capacitor (tank): time=0.009260   v_1=10.000000 v_2=10.000000  
Capacitor (tank): time=0.009270   v_1=10.000000 v_2=10.000000  
Capacitor (tank): time=0.009280   v_1=10.000000 v_2=10.000000  
Capacitor (tank): time=0.009290   v_1=10.000000 v_2=10.000000  
Capacitor (tank): time=0.009300   v_1=10.000000 v_2=10.000000  
Capacitor (tank): time=0.009310   v_1=10.000000 v_2=10.000000  
Capacitor (tank): time=0.009320   v_1=10.000000 v_2=10.000000  
Capacitor (tank): time=0.009330   v_1=10.000000 v_2=10.000000  
Capacitor (tank): time=0.009340   v_1=10.000000 v_2=10.000000  
Capacitor (tank): time=0.009350   v_1=10.000000 v_2=10.000000  
Capacitor (tank): time=0.009360   v_1=10.000000 v_2=10.000000  
Capacitor (tank): time=0.009370   v_1=10.000000 v_2=10.000000  
Capacitor (tank): time=0.009380   v_1=10.000000 v_2=10.000000  
Capacitor (tank): time=0.009390   v_1=10.000000 v_2=10.000000  
Capacitor (tank): time=0.009400   v_1=10.000000 v_2=10.000000  
Capacitor (tank): time=0.009410   v_1=10.000000 v_2=10.000000  
Capacitor (tank): time=0.009420   v_1=10.000000 v_2=10.000000  
Capacitor (tank): time=0.009430   v_1=10.000000 v_2=10.000000  
Capacitor (tank): time=0.009440   v_1=10.000000 v_2=10.000000  
Capacitor (tank): time=0.009450   v_1=10.000000 v_2=10.000000  
Capacitor (tank): time=0.009460   v_1=10.000000 v_2=10.000000  
Capacitor (tank): time=0.009470   v_1=10.000000 v_2=10.000000  
Capacitor (tank): time=0.009480   v_1=10.000000 v_2=10.000000  
Capacitor (tank): time=0.009490   v_1=10.000000 v_2=10.000000  
Capacitor (tank): time=0.009500   v_1=10.000000 v_2=10.000000  
Capacitor (tank): time=0.009510   v_1=10.000000 v_2=10.000000  
Capacitor (tank): time=0.009520   v_1=10.000000 v_2=10.000000  
Capacitor (tank): time=0.009530   v_1=10.000000 v_2=10.000000  
Capacitor (tank): time=0.009540   v_1=10.000000 v_2=10.000000  
Capacitor (tank): time=0.009550   v_1=10.000000 v_2=10.000000  
Capacitor (tank): time=0.009560   v_1=10.000000 v_2=10.000000  
Capacitor (tank): time=0.009570   v_1=10.000000 v_2=10.000000  
Capacitor (tank): time=0.009580   v_1=10.000000 v_2=10.000000  
Capacitor (tank): time=0.009590   v_1=10.000000 v_2=10.000000  
Capacitor (tank): time=0.009600   v_1=10.000000 v_2=10.000000  
Capacitor (tank): time=0.009610   v_1=10.000000 v_2=10.000000  
Capacitor (tank): time=0.009620   v_1=10.000000 v_2=10.000000  
Capacitor (tank): time=0.009630   v_1=10.000000 v_2=10.000000  
Capacitor (tank): time=0.009640   v_1=10.000000 v_2=10.000000  
Capacitor (tank): time=0.009650   v_1=10.000000 v_2=10.000000  
Capacitor (tank): time=0.009660   v_1=10.000000 v_2=10.000000  
Capacitor (tank): time=0.009670   v_1=10.000000 v_2=10.000000  
Capacitor (tank): time=0.009680   v_1=10.000000 v_2=10.000000  
Capacitor (tank): time=0.009690   v_1=10.000000 v_2=10.000000  
Capacitor (tank): time=0.009700   v_1=10.000000 v_2=10.000000  
Capacitor (tank): time=0.009710   v_1=10.000000 v_2=10.000000  
Capacitor (tank): time=0.009720   v_1=10.000000 v_2=10.000000  
Capacitor (tank): time=0.009730   v_1=10.000000 v_2=10.000000  
Capacitor (tank): time=0.009740   v_1=10.000000 v_2=10.000000  
Capacitor (tank): time=0.009750   v_1=10.000000 v_2=10.000000  
Capacitor (tank): time=0.009760   v_1=10.000000 v_2=10.000000  
Capacitor (tank): time=0.009770   v_1=10.000000 v_2=10.000000  
Capacitor (tank): time=0.009780   v_1=10.000000 v_2=10.000000  
Capacitor (tank): time=0.009790   v_1=10.000000 v_2=10.000000  
Capacitor (tank): time=0.009800   v_1=10.000000 v_2=10.000000  
Capacitor (tank): time=0.009810   v_1=10.000000 v_2=10.000000  
Capacitor (tank): time=0.009820   v_1=10.000000 v_2=10.000000  
Capacitor (tank): time=0.009830   v_1=10.000000 v_2=10.000000  
Capacitor (tank): time=0.009840   v_1=10.000000 v_2=10.000000  
Capacitor (tank): time=0.009850   v_1=10.000000 v_2=10.000000  
Capacitor (tank): time=0.009860   v_1=10.000000 v_2=10.000000  
Capacitor (tank): time=0.009870   v_1=10.000000 v_2=10.000000  
Capacitor (tank): time=0.009880   v_1=10.000000 v_2=10.000000  
Capacitor (tank): time=0.009890   v_1=10.000000 v_2=10.000000  
Capacitor (tank): time=0.009900   v_1=10.000000 v_2=10.000000  
Capacitor (tank): time=0.009910   v_1=10.000000 v_2=10.000000  
Capacitor (tank): time=0.009920   v_1=10.000000 v_2=10.000000  
Capacitor (tank): time=0.009930   v_1=10.000000 v_2=10.000000  
Capacitor (tank): time=0.009940   v_1=10.000000 v_2=10.000000  
Capacitor (tank): time=0.009950   v_1=10.000000 v_2=10.000000  
Capacitor (tank): time=0.009960   v_1=10.000000 v_2=10.000000  
Capacitor (tank): time=0.009970   v_1=10.000000 v_2=10.000000  
Capacitor (tank): time=0.009980   v_1=10.000000 v_2=10.000000  
Capacitor (tank): time=0.009990   v_1=10.000000 v_2=10.000000  
Capacitor (tank): time=0.010000   v_1=10.000000 v_2=10.000000  

Process make finished
